…
                                                flights$arr_time), 
                                        format = '%H%M'),
                               '%H:%M')
Vuelos$sched_dep_time2 <- format(strptime(sprintf('%04d', 
                                                      flights$sched_dep_time), 
                                              format = '%H%M'),
                                     '%H:%M')
Vuelos$sched_arr_time2 <- format(strptime(sprintf('%04d', 
                                                      flights$sched_arr_time), 
                                              format = '%H%M'),
                                     '%H:%M')
Vuelos
```

    ## # A tibble: 336,776 × 23
    ##     year month   day dep_time sched_dep_time dep_delay arr_time sched_arr_time
    ##    <int> <int> <int>    <int>          <int>     <dbl>    <int>          <int>
    ##  1  2013     1     1      517            515         2      830            819
    ##  2  2013     1     1      533            529         4      850            830
    ##  3  2013     1     1      542            540         2      923            850
    ##  4  2013     1     1      544            545        -1     1004           1022
    ##  5  2013     1     1      554            600        -6      812            837
    ##  6  2013     1     1      554            558        -4      740            728
    ##  7  2013     1     1      555            600        -5      913            854
    ##  8  2013     1     1      557            600        -3      709            723
    ##  9  2013     1     1      557            600        -3      838            846
    ## 10  2013     1     1      558            600        -2      753            745
    ## # ℹ 336,766 more rows
    ## # ℹ 15 more variables: arr_delay <dbl>, carrier <chr>, flight <int>,
    ## #   tailnum <chr>, origin <chr>, dest <chr>, air_time <dbl>, distance <dbl>,
    ## #   hour <dbl>, minute <dbl>, time_hour <dttm>, dep_time2 <chr>,
    ## #   arr_time2 <chr>, sched_dep_time2 <chr>, sched_arr_time2 <chr>
